{
	"data": [
		{
			"id": 29,
			"documentId": "me6wyji97uuapnwdz2bswkwf",
			"title": "Биология Термины 5 класс",
			"description": "Карточки-термины по биологии для 5 класса",
			"price": 111,
			"quantity": 998,
			"number_of_cards": 96,
			"card_type": "Вопрос-ответ",
			"is_active": true,
			"createdAt": "2025-04-17T00:26:03.126Z",
			"updatedAt": "2025-04-23T19:08:30.673Z",
			"publishedAt": "2025-04-23T19:08:30.660Z",
			"slug": "biologiya-terminy-5-klass",
			"meta_title": null,
			"meta_description": null,
			"meta_keywords": null,
			"old_price": null,
			"image": null,
			"category": null,
			"related_cards": [],
			"study_cards": []
		},
		{
			"id": 38,
			"documentId": "lcxjwzt76r3akmwlevhe9pl4",
			"title": "Тренажер 3 класс",
			"description": "Учебный тренажер по математике для 3 класса",
			"price": 403,
			"quantity": 998,
			"number_of_cards": null,
			"card_type": "Вопрос-ответ",
			"is_active": true,
			"createdAt": "2025-04-17T00:34:30.588Z",
			"updatedAt": "2025-04-19T08:08:41.117Z",
			"publishedAt": "2025-04-19T08:08:41.114Z",
			"slug": "trenazher-3-klass",
			"meta_title": null,
			"meta_description": null,
			"meta_keywords": null,
			"old_price": null,
			"image": null,
			"category": {
				"id": 2,
				"documentId": "wh3nj2sqkzpemzy7zz8dd9dq",
				"name": "Математика",
				"slug": "matematika",
				"description": "Удобные карточки по математике",
				"is_active": true,
				"createdAt": "2025-04-02T11:59:55.407Z",
				"updatedAt": "2025-04-02T11:59:55.407Z",
				"publishedAt": "2025-04-02T11:59:55.416Z",
				"meta_title": null,
				"meta_description": null,
				"meta_keywords": null
			},
			"related_cards": [],
			"study_cards": []
		},
		{
			"id": 33,
			"documentId": "p6g479h9h4fd0xwvgss5r4vm",
			"title": "Математика 5 класс",
			"description": "Учебные карточки по математике для 5 класса",
			"price": 443,
			"quantity": 1000,
			"number_of_cards": null,
			"card_type": "Вопрос-ответ",
			"is_active": true,
			"createdAt": "2025-04-17T00:31:18.441Z",
			"updatedAt": "2025-04-17T01:08:15.414Z",
			"publishedAt": "2025-04-17T01:08:15.408Z",
			"slug": "matematika-5-klass",
			"meta_title": null,
			"meta_description": null,
			"meta_keywords": null,
			"old_price": null,
			"image": null,
			"category": {
				"id": 2,
				"documentId": "wh3nj2sqkzpemzy7zz8dd9dq",
				"name": "Математика",
				"slug": "matematika",
				"description": "Удобные карточки по математике",
				"is_active": true,
				"createdAt": "2025-04-02T11:59:55.407Z",
				"updatedAt": "2025-04-02T11:59:55.407Z",
				"publishedAt": "2025-04-02T11:59:55.416Z",
				"meta_title": null,
				"meta_description": null,
				"meta_keywords": null
			},
			"related_cards": [],
			"study_cards": []
		}
	],
	"meta": {
		"pagination": { "page": 1, "pageSize": 3, "pageCount": 7, "total": 19 }
	}
}
